%YAML 1.1
%TAG !u! tag:unity3d.com,2011:
--- !u!74 &7400000
AnimationClip:
  m_ObjectHideFlags: 0
  m_CorrespondingSourceObject: {fileID: 0}
  m_PrefabInstance: {fileID: 0}
  m_PrefabAsset: {fileID: 0}
  m_Name: jentai_execution
  serializedVersion: 6
  m_Legacy: 0
  m_Compressed: 0
  m_UseHighQualityCurve: 1
  m_RotationCurves: []
  m_CompressedRotationCurves: []
  m_EulerCurves: []
  m_PositionCurves: []
  m_ScaleCurves: []
  m_FloatCurves: []
  m_PPtrCurves:
  - curve:
    - time: 0
      value: {fileID: 21300000, guid: 7d64fc035d7e7ea4ca1a97a152eaeb05, type: 3}
    - time: 0.07692308
      value: {fileID: 21300000, guid: 2ef62a12c4f08014bae9c07c7089447a, type: 3}
    - time: 0.15384616
      value: {fileID: 21300000, guid: de0d24ddf56aeaf44a0070bc41dfd358, type: 3}
    - time: 0.23076923
      value: {fileID: 21300000, guid: 71d48a8e1d7ba9747a19609b087399c0, type: 3}
    - time: 0.30769232
      value: {fileID: 21300000, guid: 8780d3ae540e56b4aa638a1433497351, type: 3}
    - time: 0.3846154
      value: {fileID: 21300000, guid: e1abebc18379ba4418ac5909fb10938b, type: 3}
    - time: 0.46153846
      value: {fileID: 21300000, guid: ae1555cdce15f1844b9133cb1d8b7991, type: 3}
    - time: 0.53846157
      value: {fileID: 21300000, guid: 4f16ecd72dab65e43895fd11e6ac46c9, type: 3}
    - time: 0.61538464
      value: {fileID: 21300000, guid: 7246230f148d5424f95bc94456e820a2, type: 3}
    - time: 0.6923077
      value: {fileID: 21300000, guid: 1b22c45262beb754e988d7e8c43d7955, type: 3}
    - time: 0.7692308
      value: {fileID: 21300000, guid: 7d1ed2951a2fd9048bd4e3b26eb0ec28, type: 3}
    - time: 0.84615386
      value: {fileID: 21300000, guid: e39802dc08bf4884aaffbd4fc515e070, type: 3}
    - time: 0.9230769
      value: {fileID: 21300000, guid: a467ee09aac2c8046903b0368c3de6fd, type: 3}
    attribute: m_Sprite
    path: 
    classID: 212
    script: {fileID: 0}
  m_SampleRate: 13
  m_WrapMode: 0
  m_Bounds:
    m_Center: {x: 0, y: 0, z: 0}
    m_Extent: {x: 0, y: 0, z: 0}
  m_ClipBindingConstant:
    genericBindings:
    - serializedVersion: 2
      path: 0
      attribute: 0
      script: {fileID: 0}
      typeID: 212
      customType: 23
      isPPtrCurve: 1
    pptrCurveMapping:
    - {fileID: 21300000, guid: 7d64fc035d7e7ea4ca1a97a152eaeb05, type: 3}
    - {fileID: 21300000, guid: 2ef62a12c4f08014bae9c07c7089447a, type: 3}
    - {fileID: 21300000, guid: de0d24ddf56aeaf44a0070bc41dfd358, type: 3}
    - {fileID: 21300000, guid: 71d48a8e1d7ba9747a19609b087399c0, type: 3}
    - {fileID: 21300000, guid: 8780d3ae540e56b4aa638a1433497351, type: 3}
    - {fileID: 21300000, guid: e1abebc18379ba4418ac5909fb10938b, type: 3}
    - {fileID: 21300000, guid: ae1555cdce15f1844b9133cb1d8b7991, type: 3}
    - {fileID: 21300000, guid: 4f16ecd72dab65e43895fd11e6ac46c9, type: 3}
    - {fileID: 21300000, guid: 7246230f148d5424f95bc94456e820a2, type: 3}
    - {fileID: 21300000, guid: 1b22c45262beb754e988d7e8c43d7955, type: 3}
    - {fileID: 21300000, guid: 7d1ed2951a2fd9048bd4e3b26eb0ec28, type: 3}
    - {fileID: 21300000, guid: e39802dc08bf4884aaffbd4fc515e070, type: 3}
    - {fileID: 21300000, guid: a467ee09aac2c8046903b0368c3de6fd, type: 3}
  m_AnimationClipSettings:
    serializedVersion: 2
    m_AdditiveReferencePoseClip: {fileID: 0}
    m_AdditiveReferencePoseTime: 0
    m_StartTime: 0
    m_StopTime: 1
    m_OrientationOffsetY: 0
    m_Level: 0
    m_CycleOffset: 0
    m_HasAdditiveReferencePose: 0
    m_LoopTime: 0
    m_LoopBlend: 0
    m_LoopBlendOrientation: 0
    m_LoopBlendPositionY: 0
    m_LoopBlendPositionXZ: 0
    m_KeepOriginalOrientation: 0
    m_KeepOriginalPositionY: 1
    m_KeepOriginalPositionXZ: 0
    m_HeightFromFeet: 0
    m_Mirror: 0
  m_EditorCurves: []
  m_EulerEditorCurves: []
  m_HasGenericRootTransform: 0
  m_HasMotionFloatCurves: 0
  m_Events: []
