%YAML 1.1
%TAG !u! tag:unity3d.com,2011:
--- !u!74 &7400000
AnimationClip:
  m_ObjectHideFlags: 0
  m_CorrespondingSourceObject: {fileID: 0}
  m_PrefabInstance: {fileID: 0}
  m_PrefabAsset: {fileID: 0}
  m_Name: jentai_crouch_heavy_attack
  serializedVersion: 6
  m_Legacy: 0
  m_Compressed: 0
  m_UseHighQualityCurve: 1
  m_RotationCurves: []
  m_CompressedRotationCurves: []
  m_EulerCurves: []
  m_PositionCurves: []
  m_ScaleCurves: []
  m_FloatCurves: []
  m_PPtrCurves:
  - curve:
    - time: 0
      value: {fileID: 21300000, guid: be9e835c25294fb4282a58641ac54672, type: 3}
    - time: 0.1
      value: {fileID: 21300000, guid: 40cdcecb88e150141a6847b89666872e, type: 3}
    - time: 0.2
      value: {fileID: 21300000, guid: 4e91d7d6982feeb4b8c185c2a1600716, type: 3}
    - time: 0.3
      value: {fileID: 21300000, guid: b9b77ea46f48a2f4286b97e10cc87ccd, type: 3}
    - time: 0.4
      value: {fileID: 21300000, guid: 204d820a0aaf63a4696ddb3e1545dc28, type: 3}
    - time: 0.5
      value: {fileID: 21300000, guid: e613bc052ee8ba84db30737608fb7f6e, type: 3}
    attribute: m_Sprite
    path: 
    classID: 212
    script: {fileID: 0}
  m_SampleRate: 10
  m_WrapMode: 0
  m_Bounds:
    m_Center: {x: 0, y: 0, z: 0}
    m_Extent: {x: 0, y: 0, z: 0}
  m_ClipBindingConstant:
    genericBindings:
    - serializedVersion: 2
      path: 0
      attribute: 0
      script: {fileID: 0}
      typeID: 212
      customType: 23
      isPPtrCurve: 1
    pptrCurveMapping:
    - {fileID: 21300000, guid: be9e835c25294fb4282a58641ac54672, type: 3}
    - {fileID: 21300000, guid: 40cdcecb88e150141a6847b89666872e, type: 3}
    - {fileID: 21300000, guid: 4e91d7d6982feeb4b8c185c2a1600716, type: 3}
    - {fileID: 21300000, guid: b9b77ea46f48a2f4286b97e10cc87ccd, type: 3}
    - {fileID: 21300000, guid: 204d820a0aaf63a4696ddb3e1545dc28, type: 3}
    - {fileID: 21300000, guid: e613bc052ee8ba84db30737608fb7f6e, type: 3}
  m_AnimationClipSettings:
    serializedVersion: 2
    m_AdditiveReferencePoseClip: {fileID: 0}
    m_AdditiveReferencePoseTime: 0
    m_StartTime: 0
    m_StopTime: 0.6
    m_OrientationOffsetY: 0
    m_Level: 0
    m_CycleOffset: 0
    m_HasAdditiveReferencePose: 0
    m_LoopTime: 0
    m_LoopBlend: 0
    m_LoopBlendOrientation: 0
    m_LoopBlendPositionY: 0
    m_LoopBlendPositionXZ: 0
    m_KeepOriginalOrientation: 0
    m_KeepOriginalPositionY: 1
    m_KeepOriginalPositionXZ: 0
    m_HeightFromFeet: 0
    m_Mirror: 0
  m_EditorCurves: []
  m_EulerEditorCurves: []
  m_HasGenericRootTransform: 0
  m_HasMotionFloatCurves: 0
  m_Events: []
